me\bumblebee\railminer\RailMiner.class
me\bumblebee\railminer\upgrades\UpgradeType.class
me\bumblebee\railminer\Miner$2.class
me\bumblebee\railminer\managers\RecipeManager.class
me\bumblebee\railminer\utils\Stats$1.class
me\bumblebee\railminer\events\SignChange.class
me\bumblebee\railminer\Miner$2$1$1.class
me\bumblebee\railminer\utils\ParticleEffect.class
me\bumblebee\railminer\events\InventoryClick.class
me\bumblebee\railminer\upgrades\Upgrade.class
me\bumblebee\railminer\Metrics$1$1.class
me\bumblebee\railminer\events\PrepareItemCraft.class
me\bumblebee\railminer\Metrics$SingleLineChart.class
me\bumblebee\railminer\Metrics$2.class
me\bumblebee\railminer\utils\ReflectionUtils.class
me\bumblebee\railminer\utils\Stats$2.class
me\bumblebee\railminer\utils\Friends.class
me\bumblebee\railminer\utils\Sign$1.class
me\bumblebee\railminer\utils\ParticleEffect$ParticleColor.class
me\bumblebee\railminer\events\PlayerInteract.class
me\bumblebee\railminer\upgrades\ReturnableUpgrade.class
me\bumblebee\railminer\upgrades\SpeedUpgrade.class
me\bumblebee\railminer\Miner$2$1$2.class
me\bumblebee\railminer\events\BlockPlace.class
me\bumblebee\railminer\Metrics$AdvancedMapChart.class
me\bumblebee\railminer\Metrics$Country.class
me\bumblebee\railminer\events\PlayerQuit.class
me\bumblebee\railminer\utils\ParticleEffect$ParticlePacket.class
me\bumblebee\railminer\upgrades\FortuneUpgrade.class
me\bumblebee\railminer\utils\ParticleEffect$ParticlePacket$PacketInstantiationException.class
me\bumblebee\railminer\managers\Messages.class
me\bumblebee\railminer\utils\ParticleEffect$OrdinaryColor.class
me\bumblebee\railminer\utils\ParticleEffect$ParticlePacket$PacketSendingException.class
me\bumblebee\railminer\utils\ParticleEffect$ParticleDataException.class
me\bumblebee\railminer\managers\LimitManager.class
me\bumblebee\railminer\upgrades\FuelEfficiencyUpgrade.class
me\bumblebee\railminer\utils\ReflectionUtils$DataType.class
me\bumblebee\railminer\Metrics$1.class
me\bumblebee\railminer\Metrics$CustomChart.class
me\bumblebee\railminer\upgrades\SilkTouchUpgrade.class
me\bumblebee\railminer\utils\ParticleEffect$ParticleData.class
me\bumblebee\railminer\utils\Util.class
me\bumblebee\railminer\utils\TownyProtectionTester.class
me\bumblebee\railminer\utils\Sign.class
me\bumblebee\railminer\utils\ParticleEffect$ParticleVersionException.class
me\bumblebee\railminer\utils\Protect.class
me\bumblebee\railminer\Miner$1.class
me\bumblebee\railminer\utils\ParticleEffect$BlockData.class
me\bumblebee\railminer\utils\ReflectionUtils$PackageType.class
me\bumblebee\railminer\commands\FriendCommands.class
me\bumblebee\railminer\Metrics$AdvancedPie.class
me\bumblebee\railminer\Metrics$SimpleMapChart.class
me\bumblebee\railminer\utils\Stats.class
me\bumblebee\railminer\utils\ParticleEffect$NoteColor.class
me\bumblebee\railminer\utils\ParticleEffect$ItemData.class
me\bumblebee\railminer\Miner.class
me\bumblebee\railminer\utils\ParticleEffect$ParticlePacket$VersionIncompatibleException.class
me\bumblebee\railminer\events\BlockBreak.class
me\bumblebee\railminer\utils\ProtectedRegion.class
me\bumblebee\railminer\Miner$3.class
me\bumblebee\railminer\utils\Legacy.class
me\bumblebee\railminer\Metrics$MultiLineChart.class
me\bumblebee\railminer\Miner$2$1.class
me\bumblebee\railminer\utils\ParticleEffect$ParticleColorException.class
me\bumblebee\railminer\managers\UpgradeManager.class
me\bumblebee\railminer\Metrics$SimplePie.class
me\bumblebee\railminer\Metrics.class
me\bumblebee\railminer\utils\ParticleEffect$ParticleProperty.class
